{
  "training": {
    "batch-size": 5,
    "collage-every": 1,
    "collage-size": 20,
    "collage-dims": [4, 5],
    "save-every": 50
  },
  "directories": {
    "data": "",
    "collage": "",
    "tensorboard": "",
    "checkpoints": ""
  },
  "run-name": "t-run-1"
}
